%YAML 1.1
%TAG !u! tag:unity3d.com,2011:
--- !u!1045 &1
EditorBuildSettings:
  m_ObjectHideFlags: 0
  serializedVersion: 2
  m_Scenes:
  - enabled: 1
    path: Assets/Scenes/SplashScreen.unity
  - enabled: 1
    path: Assets/Scenes/Level_1.unity
  - enabled: 1
    path: Assets/Scenes/Level_2.unity
  - enabled: 1
    path: Assets/Scenes/Level_3.unity
  - enabled: 1
    path: Assets/Scenes/Level_4.unity
  - enabled: 1
    path: Assets/Scenes/Level_5.unity
