%YAML 1.1
%TAG !u! tag:unity3d.com,2011:
--- !u!1001 &100100000
Prefab:
  m_ObjectHideFlags: 1
  serializedVersion: 2
  m_Modification:
    m_TransformParent: {fileID: 0}
    m_Modifications: []
    m_RemovedComponents: []
  m_ParentPrefab: {fileID: 0}
  m_RootGameObject: {fileID: 1836185186099772}
  m_IsPrefabParent: 1
--- !u!1 &1836185186099772
GameObject:
  m_ObjectHideFlags: 0
  m_PrefabParentObject: {fileID: 0}
  m_PrefabInternal: {fileID: 100100000}
  serializedVersion: 5
  m_Component:
  - component: {fileID: 4114604331773572}
  - component: {fileID: 114527531568859988}
  m_Layer: 0
  m_Name: TipManager
  m_TagString: Untagged
  m_Icon: {fileID: 0}
  m_NavMeshLayer: 0
  m_StaticEditorFlags: 0
  m_IsActive: 1
--- !u!4 &4114604331773572
Transform:
  m_ObjectHideFlags: 1
  m_PrefabParentObject: {fileID: 0}
  m_PrefabInternal: {fileID: 100100000}
  m_GameObject: {fileID: 1836185186099772}
  m_LocalRotation: {x: 0, y: 0, z: 0, w: 1}
  m_LocalPosition: {x: 577.23126, y: 245.47058, z: -1.9230957}
  m_LocalScale: {x: 1, y: 1, z: 1}
  m_Children: []
  m_Father: {fileID: 0}
  m_RootOrder: 0
  m_LocalEulerAnglesHint: {x: 0, y: 0, z: 0}
--- !u!114 &114527531568859988
MonoBehaviour:
  m_ObjectHideFlags: 1
  m_PrefabParentObject: {fileID: 0}
  m_PrefabInternal: {fileID: 100100000}
  m_GameObject: {fileID: 1836185186099772}
  m_Enabled: 1
  m_EditorHideFlags: 0
  m_Script: {fileID: 11500000, guid: ee56ff7de19e6914e8837bfb6e286dc0, type: 3}
  m_Name: 
  m_EditorClassIdentifier: 
  Tips:
  - tipType: 0
    tipText: Did you know that you can jump by touching the screen?
  - tipType: 1
    tipText: Did you know that the longer your touch the screen, the higher you will
      jump?
  - tipType: 2
    tipText: Did you know that if you touch the screen when near a wall, you will
      grab onto the wall. If you touch the screen again, you will jump off of it.
  - tipType: 3
    tipText: Tap the screen to start running!
